…
``` r
devtools::install_github("https://github.com/mskoldSU/mixcens")
```

The package comes with a sample data-set, `lindane_landsort`, containing
concentrations of Lindane measured in Herring muscle caught near
[Landsort](https://en.wikipedia.org/wiki/Landsort) in the Baltic Sea
1987-2020.

``` r
library(mixcens)
lindane_landsort
```

    ## # A tibble: 455 × 3
    ##     year  value cens 
    ##    <dbl>  <dbl> <lgl>
    ##  1  1987 0.0597 FALSE
    ##  2  1987 0.0751 FALSE
    ##  3  1987 0.0677 FALSE
    ##  4  1987 0.094  FALSE
    ##  5  1987 0.0701 FALSE
    ##  6  1987 0.0689 FALSE
    ##  7  1987 0.0689 FALSE
    ##  8  1987 0.0728 FALSE
    ##  9  1987 0.0693 FALSE
    ## 10  1987 0.0674 FALSE
    ## # … with 445 more rows
…
